%YAML 1.1
%TAG !u! tag:unity3d.com,2011:
--- !u!1045 &1
EditorBuildSettings:
  m_ObjectHideFlags: 0
  serializedVersion: 2
  m_Scenes:
  - enabled: 0
    path: 
    guid: 00000000000000000000000000000000
  - enabled: 0
    path: 
    guid: 00000000000000000000000000000000
  - enabled: 0
    path: 
    guid: 00000000000000000000000000000000
  - enabled: 0
    path: 
    guid: 00000000000000000000000000000000
  - enabled: 0
    path: 
    guid: 00000000000000000000000000000000
  - enabled: 1
    path: Assets/Scenes/TerrainTest2.unity
    guid: 5a0650168dccad622b2b969c560a949d
  m_configObjects: {}
