%YAML 1.1
%TAG !u! tag:unity3d.com,2011:
--- !u!114 &11400000
MonoBehaviour:
  m_ObjectHideFlags: 0
  m_CorrespondingSourceObject: {fileID: 0}
  m_PrefabInstance: {fileID: 0}
  m_PrefabAsset: {fileID: 0}
  m_GameObject: {fileID: 0}
  m_Enabled: 1
  m_EditorHideFlags: 0
  m_Script: {fileID: 11500000, guid: 1d6b27d623936644fb4614fc62b86d90, type: 3}
  m_Name: Eat_FollowFood
  m_EditorClassIdentifier: 
  _closeFoodRed:
    Action: 
    IsForced: 0
  _closeFoodGreen:
    Action: 
    IsForced: 0
  _closeFoodBlue:
    Action: 
    IsForced: 0
  _closeFoodYellow:
    Action: 
    IsForced: 0
  _closeFoodMagenta:
    Action: 
    IsForced: 0
  _closeFoodCyan:
    Action: 
    IsForced: 0
  _closeFoodWhite:
    Action: 
    IsForced: 0
  _onFood:
    Action: eat
    IsForced: 1
  _eatEnergy: 0
  _biteSize: 1
